{"success":true,"set":{"name":"SV: Black Bolt","set_code":"BLK","set_id":"24325","total_cards":202,"language":"eng","release_date":"18th July, 2025"},"cards":[{"id":"pk_5c2128e4713abbeda25d7fc72457967f0be7fa8c5574982fef3ca9ac694900fdde1c76ecd2e3d6c4dcf7","card_info":{"name":"Code Card - Black Bolt Booster Pack","clean_name":"Code Card Black Bolt Booster Pack","set_name":"SV: Black Bolt","set_code":"24325","card_number":null,"rarity":"Code Card","card_type":null,"hp":null,"stage":null,"card_text":"This listing is <strong>not</strong> a physical item. Please keep in mind that this <strong>Code Card</strong> listing represents a digital copy of the stated item for the Pokémon TCG Online <strong>and/or</strong> the Pokémon TCG Live games. You may receive the physical <strong>Code Card</strong>. Upon purchase, please work with your specific Seller by sending them a message using the <strong>Contact Seller</strong> button on the order details in your <a href=https://store.tcgplayer.com/myaccount/orderhistory>Order History</a> to opt in to having your <strong>Code Card</strong> code delivered digitally due to the nature of the product.","attacks":[],"weakness":null,"resistance":null,"retreat_cost":null},"tcgplayer":{"prices":[],"url":"https://www.tcgplayer.com/product/646128"},"cardmarket":null},{"id":"pk_6437bb42c5534f8d377d8d07138f46f1c8a9774ff360ef43695dd0204b393f585a5a1349888b68ae90c8","card_info":{"name":"Unova Victini Illustration Collection Case","clean_name":"Unova Victini Illustration Collection Case","set_name":"SV: Black Bolt","set_code":"24325","card_number":null,"rarity":null,"card_type":null,"hp":null,"stage":null,"card_text":"A case includes 6 Boxes\r\n<br>Includes two Scarlet & Violet—Black Bolt booster packs; two Scarlet & Violet—White Flare booster packs; one illustration rare style promo card featuring Victini; one premium parallel Poké Ball card featuring Victini; and one oversize illustration rare style foil promo card featuring Victini.","attacks":[],"weakness":null,"resistance":null,"retreat_cost":null},"tcgplayer":{"prices":[],"url":"https://www.tcgplayer.com/product/649220"},"cardmarket":null}],"pagination":{"page":2,"limit":200,"total":202,"total_pages":2}}